-------------------------------------------------------------------------------
Test set: com.visualpathit.account.controllerTest.UserControllerTest
-------------------------------------------------------------------------------
Tests run: 6, Failures: 0, Errors: 0, Skipped: 0, Time elapsed: 0.955 s -- in com.visualpathit.account.controllerTest.UserControllerTest
